%YAML 1.1
%TAG !u! tag:unity3d.com,2011:
--- !u!114 &11400000
MonoBehaviour:
  m_ObjectHideFlags: 0
  m_CorrespondingSourceObject: {fileID: 0}
  m_PrefabInstance: {fileID: 0}
  m_PrefabAsset: {fileID: 0}
  m_GameObject: {fileID: 0}
  m_Enabled: 1
  m_EditorHideFlags: 0
  m_Script: {fileID: 11500000, guid: 62f6ff059318d3146816fc368b2902e7, type: 3}
  m_Name: Not new 5
  m_EditorClassIdentifier: 
  place: 1
  sentences:
  - '"Oi!"'
  - 
  - '"Dont look at me like that..."'
  - he looks away
  - '"Its just not every day you see someone staring at the school building for 10
    minutes straight."'
  - '"Not even those of us who really think this is a prision. . ."'
  - 
  characterName: '?'
  sprite: {fileID: 21300000, guid: ebcb698bf40984941954091295af87c2, type: 3}
  secondSprite: {fileID: 21300000, guid: 1a345a55c8040ff409a512aa3d1052b0, type: 3}
  secondString: Riku
