%YAML 1.1
%TAG !u! tag:unity3d.com,2011:
--- !u!114 &11400000
MonoBehaviour:
  m_ObjectHideFlags: 0
  m_CorrespondingSourceObject: {fileID: 0}
  m_PrefabInstance: {fileID: 0}
  m_PrefabAsset: {fileID: 0}
  m_GameObject: {fileID: 0}
  m_Enabled: 1
  m_EditorHideFlags: 0
  m_Script: {fileID: 11500000, guid: cbc7c718d2e7cb6488f73364be10544c, type: 3}
  m_Name: END_REF
  m_EditorClassIdentifier: 
  decision: 1
  nextScene: {fileID: 11400000, guid: f53e82452271d6f49bfd775c5d02a807, type: 2}
  endsTheGame: 0
  upperDecisionText: LOREM
  midDecisionText: IPSUM
  lowerDecisiontext: DOLOR
  upperScene: {fileID: 11400000, guid: f53e82452271d6f49bfd775c5d02a807, type: 2}
  midScene: {fileID: 11400000, guid: f53e82452271d6f49bfd775c5d02a807, type: 2}
  lowerScene: {fileID: 11400000, guid: f53e82452271d6f49bfd775c5d02a807, type: 2}
