%YAML 1.1
%TAG !u! tag:unity3d.com,2011:
--- !u!114 &11400000
MonoBehaviour:
  m_ObjectHideFlags: 0
  m_CorrespondingSourceObject: {fileID: 0}
  m_PrefabInstance: {fileID: 0}
  m_PrefabAsset: {fileID: 0}
  m_GameObject: {fileID: 0}
  m_Enabled: 1
  m_EditorHideFlags: 0
  m_Script: {fileID: 11500000, guid: c9dab9924bec4e54eaedb59bec584481, type: 3}
  m_Name: 8. Szene
  m_EditorClassIdentifier: 
  dialogues:
  - {fileID: 11400000, guid: 32f8bbaf188aca040903fba233925762, type: 2}
  - {fileID: 11400000, guid: 34d82b01c5f0c88409fbfadff74f1030, type: 2}
  end: {fileID: 11400000, guid: d9bb823bd2522e0428846e7770ff2611, type: 2}
  backGround: {fileID: 21300000, guid: 28c7e0bd68ebae4468e882eb1dc8e356, type: 3}
  ambience: {fileID: 0}
  useFadeout: 1
