%YAML 1.1
%TAG !u! tag:unity3d.com,2011:
--- !u!114 &11400000
MonoBehaviour:
  m_ObjectHideFlags: 0
  m_CorrespondingSourceObject: {fileID: 0}
  m_PrefabInstance: {fileID: 0}
  m_PrefabAsset: {fileID: 0}
  m_GameObject: {fileID: 0}
  m_Enabled: 1
  m_EditorHideFlags: 0
  m_Script: {fileID: 11500000, guid: cbc7c718d2e7cb6488f73364be10544c, type: 3}
  m_Name: In front of the school question
  m_EditorClassIdentifier: 
  decision: 1
  nextScene: {fileID: 0}
  endsTheGame: 0
  upperDecisionText: "\"I\xB4m not new here...\""
  midDecisionText: '*Smile*'
  lowerDecisiontext: '"And you are?!"'
  upperScene: {fileID: 11400000, guid: 7ae5dbe0fb62d964c987a986c7a029e6, type: 2}
  midScene: {fileID: 11400000, guid: 3a3b738c1f625c04b957b1ca87a627a3, type: 2}
  lowerScene: {fileID: 11400000, guid: 0fb4b6353a992e14da8605492f68afb4, type: 2}
