%YAML 1.1
%TAG !u! tag:unity3d.com,2011:
--- !u!114 &11400000
MonoBehaviour:
  m_ObjectHideFlags: 0
  m_CorrespondingSourceObject: {fileID: 0}
  m_PrefabInstance: {fileID: 0}
  m_PrefabAsset: {fileID: 0}
  m_GameObject: {fileID: 0}
  m_Enabled: 1
  m_EditorHideFlags: 0
  m_Script: {fileID: 11500000, guid: 62f6ff059318d3146816fc368b2902e7, type: 3}
  m_Name: And you are 3
  m_EditorClassIdentifier: 
  place: 0
  sentences:
  - 
  - 
  - '"Nice to meet you..."'
  - '"Lightning. . ."'
  - '"My name is Riku."'
  - '"And yes I am new here."'
  characterName: Riku
  sprite: {fileID: 21300000, guid: 1a345a55c8040ff409a512aa3d1052b0, type: 3}
  secondSprite: {fileID: 21300000, guid: b56aeddfbecbfca4994ff02bfbb78417, type: 3}
  secondString: Lightning
