%YAML 1.1
%TAG !u! tag:unity3d.com,2011:
--- !u!114 &11400000
MonoBehaviour:
  m_ObjectHideFlags: 0
  m_CorrespondingSourceObject: {fileID: 0}
  m_PrefabInstance: {fileID: 0}
  m_PrefabAsset: {fileID: 0}
  m_GameObject: {fileID: 0}
  m_Enabled: 1
  m_EditorHideFlags: 0
  m_Script: {fileID: 11500000, guid: c9dab9924bec4e54eaedb59bec584481, type: 3}
  m_Name: 2.0
  m_EditorClassIdentifier: 
  dialogues:
  - {fileID: 11400000, guid: ab67d80a2870f5c49b3dea4a0e1d5932, type: 2}
  - {fileID: 11400000, guid: 289a4fd65ca5acc4389145c973b1cbcb, type: 2}
  - {fileID: 11400000, guid: 453d88fddac5add4b93dbfc06e10968e, type: 2}
  - {fileID: 11400000, guid: 00f2812325c487c4282014afc7de731d, type: 2}
  - {fileID: 11400000, guid: aae5f105a31e11349a35d45b85e1b55d, type: 2}
  - {fileID: 11400000, guid: 0f8828a6a508ac5448746159cde0ea16, type: 2}
  - {fileID: 11400000, guid: 0311c3b3791ca0f45a218145142ac153, type: 2}
  - {fileID: 11400000, guid: ae6ea079fc5b5c24ebfbcfe305ed3438, type: 2}
  - {fileID: 11400000, guid: 47486561a38e42742996a0c101e432d3, type: 2}
  - {fileID: 11400000, guid: 891db7098e39b854d8c47b9edb24f3ea, type: 2}
  - {fileID: 11400000, guid: 1413a28c2e4a1994da0790fc99648daa, type: 2}
  - {fileID: 11400000, guid: 583c81acaafddf54190162cfac9ea3bf, type: 2}
  end: {fileID: 11400000, guid: 334b68d2228fcd04bbd4d29fbee5886a, type: 2}
  backGround: {fileID: 0}
  ambience: {fileID: 0}
  useFadeout: 1
