%YAML 1.1
%TAG !u! tag:unity3d.com,2011:
--- !u!114 &11400000
MonoBehaviour:
  m_ObjectHideFlags: 0
  m_CorrespondingSourceObject: {fileID: 0}
  m_PrefabInstance: {fileID: 0}
  m_PrefabAsset: {fileID: 0}
  m_GameObject: {fileID: 0}
  m_Enabled: 1
  m_EditorHideFlags: 0
  m_Script: {fileID: 11500000, guid: c9dab9924bec4e54eaedb59bec584481, type: 3}
  m_Name: a3.0
  m_EditorClassIdentifier: 
  dialogues:
  - {fileID: 11400000, guid: b8128962042c5e4479e969009a0a6153, type: 2}
  end: {fileID: 11400000, guid: 84a2ba84f0708394499826442f0e1aad, type: 2}
  backGround: {fileID: 0}
  ambience: {fileID: 0}
  useFadeout: 0
