%YAML 1.1
%TAG !u! tag:unity3d.com,2011:
--- !u!114 &11400000
MonoBehaviour:
  m_ObjectHideFlags: 0
  m_CorrespondingSourceObject: {fileID: 0}
  m_PrefabInstance: {fileID: 0}
  m_PrefabAsset: {fileID: 0}
  m_GameObject: {fileID: 0}
  m_Enabled: 1
  m_EditorHideFlags: 0
  m_Script: {fileID: 11500000, guid: c9dab9924bec4e54eaedb59bec584481, type: 3}
  m_Name: b3.0
  m_EditorClassIdentifier: 
  dialogues:
  - {fileID: 11400000, guid: e2e38f48cf3c9794fa50aee96101ffa1, type: 2}
  - {fileID: 11400000, guid: 23d302e914a3b374bb7e8be0886a72cf, type: 2}
  - {fileID: 11400000, guid: fc1e4925b4de5e940ae6f1ae60fd1397, type: 2}
  - {fileID: 11400000, guid: cd247e4ab5399ab4c9b9c9ecc939092d, type: 2}
  - {fileID: 11400000, guid: 82d6a8ddbdc83f54dace2251f1ea566a, type: 2}
  - {fileID: 11400000, guid: 72d2a138843e8fc45910b495da7404cc, type: 2}
  end: {fileID: 11400000, guid: 84a2ba84f0708394499826442f0e1aad, type: 2}
  backGround: {fileID: 0}
  ambience: {fileID: 0}
  useFadeout: 0
