%YAML 1.1
%TAG !u! tag:unity3d.com,2011:
--- !u!114 &11400000
MonoBehaviour:
  m_ObjectHideFlags: 0
  m_CorrespondingSourceObject: {fileID: 0}
  m_PrefabInstance: {fileID: 0}
  m_PrefabAsset: {fileID: 0}
  m_GameObject: {fileID: 0}
  m_Enabled: 1
  m_EditorHideFlags: 0
  m_Script: {fileID: 11500000, guid: c9dab9924bec4e54eaedb59bec584481, type: 3}
  m_Name: c3.0
  m_EditorClassIdentifier: 
  dialogues:
  - {fileID: 11400000, guid: a5e5fc4b458955a49aeb640c2c12f0a2, type: 2}
  - {fileID: 11400000, guid: 62ef6fb9a83b0d24f878cfce4a4d728d, type: 2}
  - {fileID: 11400000, guid: 453c6f825713d2f439743b8722d134dc, type: 2}
  - {fileID: 11400000, guid: 20c11c2843b68e643b631d083ff2ff35, type: 2}
  - {fileID: 11400000, guid: 82d6a8ddbdc83f54dace2251f1ea566a, type: 2}
  - {fileID: 11400000, guid: 417628ddcbbd59744a9c79b3074bd881, type: 2}
  - {fileID: 11400000, guid: 83d4050126595fc4e80a71125e799ae0, type: 2}
  - {fileID: 11400000, guid: c85cfa0f78d18e141a6d7b1b64928cb3, type: 2}
  end: {fileID: 11400000, guid: 84a2ba84f0708394499826442f0e1aad, type: 2}
  backGround: {fileID: 0}
  ambience: {fileID: 0}
  useFadeout: 0
