%YAML 1.1
%TAG !u! tag:unity3d.com,2011:
--- !u!114 &11400000
MonoBehaviour:
  m_ObjectHideFlags: 0
  m_CorrespondingSourceObject: {fileID: 0}
  m_PrefabInstance: {fileID: 0}
  m_PrefabAsset: {fileID: 0}
  m_GameObject: {fileID: 0}
  m_Enabled: 1
  m_EditorHideFlags: 0
  m_Script: {fileID: 11500000, guid: c9dab9924bec4e54eaedb59bec584481, type: 3}
  m_Name: 1.0
  m_EditorClassIdentifier: 
  dialogues:
  - {fileID: 11400000, guid: e3405537f326864468abcdc5fcbfd5ff, type: 2}
  - {fileID: 11400000, guid: 2aaa43f91c7ff364eb231385676ccc28, type: 2}
  - {fileID: 11400000, guid: 5e866269fe4324342a3b99c3760d4de8, type: 2}
  - {fileID: 11400000, guid: f5e47871937afb64f9ec59563f4bceee, type: 2}
  - {fileID: 11400000, guid: fadc47f74b5515b408844905b8631cbe, type: 2}
  - {fileID: 11400000, guid: 1e537365683989d44a29ba1470c68a79, type: 2}
  end: {fileID: 11400000, guid: 95ca4d5222b6df7489c2ac5e1e029cb5, type: 2}
  backGround: {fileID: 0}
  ambience: {fileID: 0}
  useFadeout: 1
