%YAML 1.1
%TAG !u! tag:unity3d.com,2011:
--- !u!114 &11400000
MonoBehaviour:
  m_ObjectHideFlags: 0
  m_CorrespondingSourceObject: {fileID: 0}
  m_PrefabInstance: {fileID: 0}
  m_PrefabAsset: {fileID: 0}
  m_GameObject: {fileID: 0}
  m_Enabled: 1
  m_EditorHideFlags: 0
  m_Script: {fileID: 11500000, guid: 62f6ff059318d3146816fc368b2902e7, type: 3}
  m_Name: 1.4
  m_EditorClassIdentifier: 
  place: 2
  sentences:
  - 'The other one was growling, very obviously not happy about what the second one
    was doing. '
  - His red eyes glaring at the brown haired guy while his knuckles where slowly
    turning white because he was clenching his fists tightly.
  - You watched the black and brown haired quarrel while you turned your attention
    back to the teacher who had Introduced you to the class.
  characterName: Riku
  sprite: {fileID: 21300000, guid: 1a345a55c8040ff409a512aa3d1052b0, type: 3}
  secondSprite: {fileID: 0}
  secondString: 
  soundEffectIndex: 0
  soundEffect: {fileID: 0}
