%YAML 1.1
%TAG !u! tag:unity3d.com,2011:
--- !u!114 &11400000
MonoBehaviour:
  m_ObjectHideFlags: 0
  m_CorrespondingSourceObject: {fileID: 0}
  m_PrefabInstance: {fileID: 0}
  m_PrefabAsset: {fileID: 0}
  m_GameObject: {fileID: 0}
  m_Enabled: 1
  m_EditorHideFlags: 0
  m_Script: {fileID: 11500000, guid: c9dab9924bec4e54eaedb59bec584481, type: 3}
  m_Name: 1.0
  m_EditorClassIdentifier: 
  dialogues:
  - {fileID: 11400000, guid: dc40d0d0d17d026429ffa5b4efa9a004, type: 2}
  - {fileID: 11400000, guid: a9e667596a6cb6e48b7ec1c8bd5ad378, type: 2}
  - {fileID: 11400000, guid: 5f29f05473542774db34fc5dfc7deeab, type: 2}
  end: {fileID: 11400000, guid: c9968b5ae5dce6d4bbeed110341f178a, type: 2}
  backGround: {fileID: 0}
  ambience: {fileID: 0}
  useFadeout: 1
