%YAML 1.1
%TAG !u! tag:unity3d.com,2011:
--- !u!114 &11400000
MonoBehaviour:
  m_ObjectHideFlags: 0
  m_CorrespondingSourceObject: {fileID: 0}
  m_PrefabInstance: {fileID: 0}
  m_PrefabAsset: {fileID: 0}
  m_GameObject: {fileID: 0}
  m_Enabled: 1
  m_EditorHideFlags: 0
  m_Script: {fileID: 11500000, guid: cbc7c718d2e7cb6488f73364be10544c, type: 3}
  m_Name: 1.Decision
  m_EditorClassIdentifier: 
  decision: 1
  nextScene: {fileID: 0}
  endsTheGame: 0
  upperDecisionText: "\u201CRamen please!\u201D"
  midDecisionText: "\u201CSweat could be the right thing, right now.\u201D"
  lowerDecisiontext: "\u201CBookshop sounds good\u201D"
  upperScene: {fileID: 11400000, guid: ce19013eb12e8e94e81f6b885b8fa24c, type: 2}
  midScene: {fileID: 11400000, guid: 649b26481eafdbe44970f3c0e5eb4e99, type: 2}
  lowerScene: {fileID: 11400000, guid: ad32056f950268d4ebd3cbe910fa3df2, type: 2}
