%YAML 1.1
%TAG !u! tag:unity3d.com,2011:
--- !u!114 &11400000
MonoBehaviour:
  m_ObjectHideFlags: 0
  m_CorrespondingSourceObject: {fileID: 0}
  m_PrefabInstance: {fileID: 0}
  m_PrefabAsset: {fileID: 0}
  m_GameObject: {fileID: 0}
  m_Enabled: 1
  m_EditorHideFlags: 0
  m_Script: {fileID: 11500000, guid: 62f6ff059318d3146816fc368b2902e7, type: 3}
  m_Name: 2a15
  m_EditorClassIdentifier: 
  place: 0
  sentences:
  - "\u201COh!\u201D"
  - "\u201CThen it is my pleasure to meet you Sarah-san.\u201D"
  - "\u201CI\xB4m sorry if the question seemed rude!\u201D"
  characterName: Date
  sprite: {fileID: 21300000, guid: 5800267a96f5529419242da24e0fec51, type: 3}
  secondSprite: {fileID: 21300000, guid: 79404b2b9c8fdb2449bc037770490529, type: 3}
  secondString: Sarah
  soundEffectIndex: 0
  soundEffect: {fileID: 0}
