%YAML 1.1
%TAG !u! tag:unity3d.com,2011:
--- !u!114 &11400000
MonoBehaviour:
  m_ObjectHideFlags: 0
  m_CorrespondingSourceObject: {fileID: 0}
  m_PrefabInstance: {fileID: 0}
  m_PrefabAsset: {fileID: 0}
  m_GameObject: {fileID: 0}
  m_Enabled: 1
  m_EditorHideFlags: 0
  m_Script: {fileID: 11500000, guid: 62f6ff059318d3146816fc368b2902e7, type: 3}
  m_Name: 2a3
  m_EditorClassIdentifier: 
  place: 0
  sentences:
  - "\u201CHehe!\u201D"
  - "\u201CYes I found this place online and thought this was the place to go for
    if we were going to eat ramen.\u201D"
  - "\u201CWell then, shall we get inside?\u201D"
  characterName: Sarah
  sprite: {fileID: 21300000, guid: c6f49330ceeb9094d86f442adb97c5c1, type: 3}
  secondSprite: {fileID: 21300000, guid: 1a345a55c8040ff409a512aa3d1052b0, type: 3}
  secondString: Riku
  soundEffectIndex: 0
  soundEffect: {fileID: 0}
