%YAML 1.1
%TAG !u! tag:unity3d.com,2011:
--- !u!114 &11400000
MonoBehaviour:
  m_ObjectHideFlags: 0
  m_CorrespondingSourceObject: {fileID: 0}
  m_PrefabInstance: {fileID: 0}
  m_PrefabAsset: {fileID: 0}
  m_GameObject: {fileID: 0}
  m_Enabled: 1
  m_EditorHideFlags: 0
  m_Script: {fileID: 11500000, guid: 62f6ff059318d3146816fc368b2902e7, type: 3}
  m_Name: 2b13
  m_EditorClassIdentifier: 
  place: 0
  sentences:
  - "\u201CAh yes. His friend or more like sibling!\u201D"
  - "\u201CWe moved here together.\u201D"
  characterName: Sarah
  sprite: {fileID: 21300000, guid: c4306831d8aec85429066be2234472dc, type: 3}
  secondSprite: {fileID: 21300000, guid: cf91ad85da6130e4aad356f1bfeab3c4, type: 3}
  secondString: Gojo
  soundEffectIndex: 0
  soundEffect: {fileID: 0}
