%YAML 1.1
%TAG !u! tag:unity3d.com,2011:
--- !u!114 &11400000
MonoBehaviour:
  m_ObjectHideFlags: 0
  m_CorrespondingSourceObject: {fileID: 0}
  m_PrefabInstance: {fileID: 0}
  m_PrefabAsset: {fileID: 0}
  m_GameObject: {fileID: 0}
  m_Enabled: 1
  m_EditorHideFlags: 0
  m_Script: {fileID: 11500000, guid: 62f6ff059318d3146816fc368b2902e7, type: 3}
  m_Name: 2b2
  m_EditorClassIdentifier: 
  place: 1
  sentences:
  - You stare at her before laughing.
  - "\u201CWhat a dumb question\u2026\u201D"
  - "\u201CObviously this is an\u2026\u201D"
  - "\u201CAmazing Idea!\u201D "
  - 'Sarah grins pulling you along towards the pancake shop. '
  - "Why\u2026This looks way better than what I expected."
  - Now I am hungry.
  characterName: Riku
  sprite: {fileID: 21300000, guid: 1a345a55c8040ff409a512aa3d1052b0, type: 3}
  secondSprite: {fileID: 21300000, guid: c4306831d8aec85429066be2234472dc, type: 3}
  secondString: Sarah
  soundEffectIndex: 0
  soundEffect: {fileID: 0}
