%YAML 1.1
%TAG !u! tag:unity3d.com,2011:
--- !u!114 &11400000
MonoBehaviour:
  m_ObjectHideFlags: 0
  m_CorrespondingSourceObject: {fileID: 0}
  m_PrefabInstance: {fileID: 0}
  m_PrefabAsset: {fileID: 0}
  m_GameObject: {fileID: 0}
  m_Enabled: 1
  m_EditorHideFlags: 0
  m_Script: {fileID: 11500000, guid: 62f6ff059318d3146816fc368b2902e7, type: 3}
  m_Name: 2c8
  m_EditorClassIdentifier: 
  place: 1
  sentences:
  - Sarah half jumped away into the direction she had pointed in.
  - Jiji let out a deep sigh.
  - "He couldn\u2019t stop her again."
  - She just bought so much manga again.
  characterName: Riku
  sprite: {fileID: 21300000, guid: 1a345a55c8040ff409a512aa3d1052b0, type: 3}
  secondSprite: {fileID: 21300000, guid: ebcb698bf40984941954091295af87c2, type: 3}
  secondString: '?'
  soundEffectIndex: 0
  soundEffect: {fileID: 0}
