%YAML 1.1
%TAG !u! tag:unity3d.com,2011:
--- !u!114 &11400000
MonoBehaviour:
  m_ObjectHideFlags: 0
  m_CorrespondingSourceObject: {fileID: 0}
  m_PrefabInstance: {fileID: 0}
  m_PrefabAsset: {fileID: 0}
  m_GameObject: {fileID: 0}
  m_Enabled: 1
  m_EditorHideFlags: 0
  m_Script: {fileID: 11500000, guid: c9dab9924bec4e54eaedb59bec584481, type: 3}
  m_Name: Middle
  m_EditorClassIdentifier: 
  dialogues:
  - {fileID: 11400000, guid: 86c7fc720a5a50b4db5206cff9225495, type: 2}
  - {fileID: 11400000, guid: 5dc84c1bf34050345aa786c9a31c5f40, type: 2}
  end: {fileID: 11400000, guid: 062d572386d45f2419a76c88f4cf9b76, type: 2}
  backGround: {fileID: 21300000, guid: a7f4f4d2532ce6c43b8288d1ce8298c8, type: 3}
  ambience: {fileID: 8300000, guid: cbb856f4d98451a468798fb6f25d612e, type: 3}
  useFadeout: 1
