%YAML 1.1
%TAG !u! tag:unity3d.com,2011:
--- !u!114 &11400000
MonoBehaviour:
  m_ObjectHideFlags: 0
  m_CorrespondingSourceObject: {fileID: 0}
  m_PrefabInstance: {fileID: 0}
  m_PrefabAsset: {fileID: 0}
  m_GameObject: {fileID: 0}
  m_Enabled: 1
  m_EditorHideFlags: 0
  m_Script: {fileID: 11500000, guid: c9dab9924bec4e54eaedb59bec584481, type: 3}
  m_Name: 6. Start
  m_EditorClassIdentifier: 
  dialogues:
  - {fileID: 11400000, guid: 71fbaff978f524d48b233f55e3e14019, type: 2}
  - {fileID: 11400000, guid: 16c9aa617c6fed948ae3bd72a7be99b8, type: 2}
  - {fileID: 11400000, guid: 05852a53af5bc5944adfb9d9aaa79196, type: 2}
  - {fileID: 11400000, guid: f4622bdce24c1d34c8e9de0de51767ce, type: 2}
  - {fileID: 11400000, guid: 3f99182f2cddc5f4098205751459423f, type: 2}
  - {fileID: 11400000, guid: 0a0e7c2c7bc322641a50ecfa8640b18d, type: 2}
  - {fileID: 11400000, guid: 09ce690d0a28cc643b3ccff5e4794b49, type: 2}
  end: {fileID: 11400000, guid: 5d577fb89787c1d4095c24ee5ffb08c1, type: 2}
  backGround: {fileID: 0}
  ambience: {fileID: 0}
  useFadeout: 1
