%YAML 1.1
%TAG !u! tag:unity3d.com,2011:
--- !u!114 &11400000
MonoBehaviour:
  m_ObjectHideFlags: 0
  m_CorrespondingSourceObject: {fileID: 0}
  m_PrefabInstance: {fileID: 0}
  m_PrefabAsset: {fileID: 0}
  m_GameObject: {fileID: 0}
  m_Enabled: 1
  m_EditorHideFlags: 0
  m_Script: {fileID: 11500000, guid: 62f6ff059318d3146816fc368b2902e7, type: 3}
  m_Name: c 14
  m_EditorClassIdentifier: 
  place: 0
  sentences:
  - Hm...now she seems to be completely normal again
  - You shove the weird feeling you had aside.
  - This must have been imagination.
  - Were talking about Sarah after all.
  - She would never do something really bad....not even sure she is able to.
  characterName: Riku
  sprite: {fileID: 21300000, guid: 1a345a55c8040ff409a512aa3d1052b0, type: 3}
  secondSprite: {fileID: 21300000, guid: 5d79c9bfa0bf48c40ae9f32b9fd6bb4e, type: 3}
  secondString: Sarah
  soundEffectIndex: 0
  soundEffect: {fileID: 0}
