%YAML 1.1
%TAG !u! tag:unity3d.com,2011:
--- !u!114 &11400000
MonoBehaviour:
  m_ObjectHideFlags: 0
  m_CorrespondingSourceObject: {fileID: 0}
  m_PrefabInstance: {fileID: 0}
  m_PrefabAsset: {fileID: 0}
  m_GameObject: {fileID: 0}
  m_Enabled: 1
  m_EditorHideFlags: 0
  m_Script: {fileID: 11500000, guid: cbc7c718d2e7cb6488f73364be10544c, type: 3}
  m_Name: 2 Outside school
  m_EditorClassIdentifier: 
  decision: 0
  nextScene: {fileID: 11400000, guid: 9f37c51dd5a4e8b4da076871924f6eb0, type: 2}
  endsTheGame: 0
  upperDecisionText: 
  midDecisionText: 
  lowerDecisiontext: 
  upperScene: {fileID: 0}
  midScene: {fileID: 0}
  lowerScene: {fileID: 0}
