%YAML 1.1
%TAG !u! tag:unity3d.com,2011:
--- !u!114 &11400000
MonoBehaviour:
  m_ObjectHideFlags: 0
  m_CorrespondingSourceObject: {fileID: 0}
  m_PrefabInstance: {fileID: 0}
  m_PrefabAsset: {fileID: 0}
  m_GameObject: {fileID: 0}
  m_Enabled: 1
  m_EditorHideFlags: 0
  m_Script: {fileID: 11500000, guid: 62f6ff059318d3146816fc368b2902e7, type: 3}
  m_Name: 2.2
  m_EditorClassIdentifier: 
  place: 1
  sentences:
  - "\u201CYou cant just eat those the whole day!\u201D"
  - "\u201CThey are unhealthy and you will get fat if you continue just chugging
    all of this down!\u201D"
  characterName: Weird guy 1
  sprite: {fileID: 0}
  secondSprite: {fileID: 0}
  secondString: Weird guy 2
  soundEffectIndex: 0
  soundEffect: {fileID: 0}
