%YAML 1.1
%TAG !u! tag:unity3d.com,2011:
--- !u!114 &11400000
MonoBehaviour:
  m_ObjectHideFlags: 0
  m_CorrespondingSourceObject: {fileID: 0}
  m_PrefabInstance: {fileID: 0}
  m_PrefabAsset: {fileID: 0}
  m_GameObject: {fileID: 0}
  m_Enabled: 1
  m_EditorHideFlags: 0
  m_Script: {fileID: 11500000, guid: 62f6ff059318d3146816fc368b2902e7, type: 3}
  m_Name: 2.3
  m_EditorClassIdentifier: 
  place: 0
  sentences:
  - "\u201CHm?~\u201D"
  - "\u201COh you think I would get fat? Just\u2026now?\u201D"
  - "\u201CDo you listen to yourself?\u201D"
  - "\u201CIt isn\u2019t as if I had different eating habits the last years\u2026What
    could happen now?!\u201D"
  characterName: Weird guy 2
  sprite: {fileID: 0}
  secondSprite: {fileID: 0}
  secondString: Weird guy 1
  soundEffectIndex: 0
  soundEffect: {fileID: 0}
