%YAML 1.1
%TAG !u! tag:unity3d.com,2011:
--- !u!114 &11400000
MonoBehaviour:
  m_ObjectHideFlags: 0
  m_CorrespondingSourceObject: {fileID: 0}
  m_PrefabInstance: {fileID: 0}
  m_PrefabAsset: {fileID: 0}
  m_GameObject: {fileID: 0}
  m_Enabled: 1
  m_EditorHideFlags: 0
  m_Script: {fileID: 11500000, guid: c9dab9924bec4e54eaedb59bec584481, type: 3}
  m_Name: A.0
  m_EditorClassIdentifier: 
  dialogues:
  - {fileID: 11400000, guid: 25237c69e395a224f91543bf0f4013be, type: 2}
  - {fileID: 11400000, guid: 1a1fec7c051d3b84987047a3b8994be8, type: 2}
  end: {fileID: 11400000, guid: 0a350f6f4f0f53045ba4cddabea9dc1c, type: 2}
  backGround: {fileID: 0}
  ambience: {fileID: 0}
  useFadeout: 0
