%YAML 1.1
%TAG !u! tag:unity3d.com,2011:
--- !u!114 &11400000
MonoBehaviour:
  m_ObjectHideFlags: 0
  m_CorrespondingSourceObject: {fileID: 0}
  m_PrefabInstance: {fileID: 0}
  m_PrefabAsset: {fileID: 0}
  m_GameObject: {fileID: 0}
  m_Enabled: 1
  m_EditorHideFlags: 0
  m_Script: {fileID: 11500000, guid: c9dab9924bec4e54eaedb59bec584481, type: 3}
  m_Name: C.3
  m_EditorClassIdentifier: 
  dialogues:
  - {fileID: 11400000, guid: e74ad13174cd9734981fca01015e21e9, type: 2}
  - {fileID: 11400000, guid: bef2a30e4d9d228499dbb1e244728f9d, type: 2}
  - {fileID: 11400000, guid: 4d87716fd8be8864a998edd461d556de, type: 2}
  - {fileID: 11400000, guid: 98ff8039464d3064ab2a07a643cb230f, type: 2}
  - {fileID: 11400000, guid: d0e14c3ae40b4a34399d7074692f862f, type: 2}
  end: {fileID: 11400000, guid: 0a350f6f4f0f53045ba4cddabea9dc1c, type: 2}
  backGround: {fileID: 0}
  ambience: {fileID: 0}
  useFadeout: 0
