%YAML 1.1
%TAG !u! tag:unity3d.com,2011:
--- !u!114 &11400000
MonoBehaviour:
  m_ObjectHideFlags: 0
  m_CorrespondingSourceObject: {fileID: 0}
  m_PrefabInstance: {fileID: 0}
  m_PrefabAsset: {fileID: 0}
  m_GameObject: {fileID: 0}
  m_Enabled: 1
  m_EditorHideFlags: 0
  m_Script: {fileID: 11500000, guid: c9dab9924bec4e54eaedb59bec584481, type: 3}
  m_Name: 1.0
  m_EditorClassIdentifier: 
  dialogues:
  - {fileID: 11400000, guid: c9f1c98393cb44e409ce9798866b4c4b, type: 2}
  - {fileID: 11400000, guid: f07943af4204be3478365c4d8e42b47f, type: 2}
  - {fileID: 11400000, guid: 422ba56d116844b42a19024e16fa6f99, type: 2}
  - {fileID: 11400000, guid: 44eb2cf14bc1d2041bedb44f73157e41, type: 2}
  - {fileID: 11400000, guid: af79fe3f7962a2b4fb4ccd378cd0bd6c, type: 2}
  end: {fileID: 11400000, guid: ed7d8141076de22478a740ab0bc331c3, type: 2}
  backGround: {fileID: 0}
  ambience: {fileID: 0}
  useFadeout: 1
