%YAML 1.1
%TAG !u! tag:unity3d.com,2011:
--- !u!114 &11400000
MonoBehaviour:
  m_ObjectHideFlags: 0
  m_CorrespondingSourceObject: {fileID: 0}
  m_PrefabInstance: {fileID: 0}
  m_PrefabAsset: {fileID: 0}
  m_GameObject: {fileID: 0}
  m_Enabled: 1
  m_EditorHideFlags: 0
  m_Script: {fileID: 11500000, guid: c9dab9924bec4e54eaedb59bec584481, type: 3}
  m_Name: 3 The real shit!
  m_EditorClassIdentifier: 
  dialogues:
  - {fileID: 11400000, guid: e2b4b7842570999459a618ccfd8c0a1b, type: 2}
  - {fileID: 11400000, guid: 4d7ebe2005334dc449204453ba46cb63, type: 2}
  - {fileID: 11400000, guid: 8a42602aa8fbf6c458117a2c6e95d695, type: 2}
  end: {fileID: 11400000, guid: c5e7a90739ed873429b019823609518c, type: 2}
  backGround: {fileID: 0}
  ambience: {fileID: 0}
  useFadeout: 0
