%YAML 1.1
%TAG !u! tag:unity3d.com,2011:
--- !u!114 &11400000
MonoBehaviour:
  m_ObjectHideFlags: 0
  m_CorrespondingSourceObject: {fileID: 0}
  m_PrefabInstance: {fileID: 0}
  m_PrefabAsset: {fileID: 0}
  m_GameObject: {fileID: 0}
  m_Enabled: 1
  m_EditorHideFlags: 0
  m_Script: {fileID: 11500000, guid: c9dab9924bec4e54eaedb59bec584481, type: 3}
  m_Name: 4.2 c
  m_EditorClassIdentifier: 
  dialogues:
  - {fileID: 11400000, guid: 8ba3c142f78f6e5409e6fe47799a5a60, type: 2}
  - {fileID: 11400000, guid: 252e59540286301468ac0ca1b8ab55b5, type: 2}
  end: {fileID: 11400000, guid: 2aef6697debe3f2479816768e6a134d3, type: 2}
  backGround: {fileID: 0}
  ambience: {fileID: 0}
  useFadeout: 0
