%YAML 1.1
%TAG !u! tag:unity3d.com,2011:
--- !u!114 &11400000
MonoBehaviour:
  m_ObjectHideFlags: 0
  m_CorrespondingSourceObject: {fileID: 0}
  m_PrefabInstance: {fileID: 0}
  m_PrefabAsset: {fileID: 0}
  m_GameObject: {fileID: 0}
  m_Enabled: 1
  m_EditorHideFlags: 0
  m_Script: {fileID: 11500000, guid: 62f6ff059318d3146816fc368b2902e7, type: 3}
  m_Name: 4.10
  m_EditorClassIdentifier: 
  place: 1
  sentences:
  - "\u201COh I just wanted to ask if our \u201COvernight\u201D activity is still
    planned.\u201D"
  characterName: Yuji
  sprite: {fileID: 0}
  secondSprite: {fileID: 0}
  secondString: 'Gojo '
  soundEffectIndex: 0
  soundEffect: {fileID: 0}
